bin,benignPL,maliciousPL
1,58.83,205.28
2,2.15,4.75
3,2.30,8.63
4,2.03,0.93
5,126.26,0.44
6,1.13,0.51
7,1.35,9.11
8,17.15,0.00
9,0.65,0.00
10,1.22,0.00
11,1.30,0.00
12,0.72,0.00
13,0.64,0.00
14,0.68,0.00
15,2.12,0.00
16,0.99,0.00
17,13.86,0.00
18,3.79,0.00
19,1.25,0.00
20,7.91,0.00
21,10.58,0.00
22,101.43,0.00
23,43.04,0.00