iters,Kmeans1,Kmeans2,Kmeans3,Kmeans4,Kmeans5
0,0.00000000000045072682,0.00000000000045072682,0.00000000000045072682,0.00000000000045072682,0.00000000000045072682
1,0.00000000000045072682,0.00000000000045072682,0.00000000000045072682,0.28840390963334100000,0.00000000000045072682
2,0.00000000000045072682,0.00000000000045072682,0.28840390963334100000,0.28840390963334100000,0.03312634839038260000
3,0.00000000000045072682,0.00000000000045072682,0.28840390963334100000,9.76851449929878000000,0.03312634839038260000
4,0.00000000000045072682,0.00000000000045072682,0.28840390963334100000,9.76851449929878000000,0.03312634839038260000
5,0.00000000000045072682,0.00000000000045072682,0.28840390963334100000,9.76851449929878000000,0.03312634839038260000
6,0.00000000000045072682,0.03312634839038260000,0.28840390963334100000,9.76851449929878000000,9.76851449929878000000
7,0.00000000000045072682,0.03312634839038260000,0.28840390963334100000,9.76851449929878000000,18.73356724880100000000
8,0.00000000000045072682,0.03312634839038260000,0.28840390963334100000,9.76851449929878000000,18.73356724880100000000
9,0.00000000000045072682,0.03312634839038260000,0.28840390963334100000,9.76851449929878000000,18.73356724880100000000
10,0.00000000000045072682,0.03312634839038260000,0.28840390963334100000,9.76851449929878000000,18.73356724880100000000