num_pmds,p0,p1,p2,p3,p4,p5,p6,p7,p8,p9,p10,p11,p12,p13,p14,p15
1,2000,0,0,0,0,0,0,0,0,0,0,0,0,0,0,0
2,1444,1479,0,0,0,0,0,0,0,0,0,0,0,0,0,0
4,929,776,979,770,0,0,0,0,0,0,0,0,0,0,0,0
8,514,317,320,515,503,516,506,563,0,0,0,0,0,0,0,0
16,258,260,276,326,265,194,127,261,319,258,254,189,262,129,195,267